{
    "name": "Two",
    "hand": [
        "any"
    ],
    "finger_bends": {
        "index": [
            "straight"
        ],
        "middle": [
            "straight"
        ],
        "ring": [
            "partly_bent",
            "fully_bent",
            "none"
        ],
        "little": [
            "partly_bent",
            "fully_bent",
            "none"
        ],
        "thumb": [
            "any"
        ]
    },
    "finger_spreads": {
        "index-middle": [
            "far"
        ],
        "middle-ring": [
            "any"
        ],
        "ring-little": [
            "any"
        ]
    },
    "thumb-position": [
        "over",
        "close",
        "none"
    ],
    "thumb-tip": [
        "any"
    ],
    "thumb-direction": [
        "any"
    ],    
    "hand-direction": [
        "up"
    ]
}